test/veri_fe_taskcover/engine_0/trace0.vcd
$version Generated by Yosys-SMTBMC $end
$timescale 1ns $end
$var integer 32 t smt_step $end
$var event 1 ! smt_clock $end
$scope module falling_edge_detect $end
$var wire 1 n0 _cf_01__EN $end
$scope module _witness_ $end
$var wire 1 n1 anyinit_procdff_25 $end
$upscope $end
$var wire 1 n2 clk $end
$var wire 1 n3 delay_reg $end
$var wire 1 n4 f_past_valid $end
$var wire 1 n5 level $end
$var wire 1 n6 resetn $end
$var wire 1 n7 tick $end
$upscope $end
$enddefinitions $end
#0
1!
b00000000000000000000000000000000 t
b1 n2
b0 n0
b0 n1
b0 n3
b0 n4
b0 n5
b0 n6
b0 n7
#5
b0 n2
#10
1!
b00000000000000000000000000000001 t
b1 n2
b1 n0
b0 n1
b0 n3
b1 n4
b1 n5
b1 n6
b0 n7
#15
b0 n2
#20
1!
b00000000000000000000000000000010 t
b1 n2
b1 n0
b1 n1
b1 n3
b1 n4
b0 n5
b1 n6
b1 n7
#25
b0 n2
#30
1!
b00000000000000000000000000000011 t
b1 n2
b1 n0
b0 n1
b0 n3
b1 n4
b0 n5
b0 n6
b0 n7
#35
b0 n2
#40
1!
b00000000000000000000000000000100 t
b1 n2
